module main

go 1.21.0

require (
	github.com/Azure/azure-sdk-for-go/sdk/azidentity v1.3.1
	github.com/jarcoal/httpmock v1.3.1
	github.com/microsoftgraph/msgraph-sdk-go v1.16.0
	github.com/mitchellh/go-homedir v1.1.0
	github.com/stretchr/testify v1.8.4
	gopkg.in/yaml.v2 v2.4.0
)

require (
	github.com/Azure/azure-sdk-for-go/sdk/azcore v1.7.1 // indirect
	github.com/Azure/azure-sdk-for-go/sdk/internal v1.3.0 // indirect
	github.com/AzureAD/microsoft-authentication-library-for-go v1.1.1 // indirect
	github.com/cjlapao/common-go v0.0.39 // indirect
	github.com/davecgh/go-spew v1.1.1 // indirect
	github.com/go-logr/logr v1.2.4 // indirect
	github.com/go-logr/stdr v1.2.2 // indirect
	github.com/golang-jwt/jwt/v5 v5.0.0 // indirect
	github.com/google/uuid v1.3.1 // indirect
	github.com/kylelemons/godebug v1.1.0 // indirect
	github.com/microsoft/kiota-abstractions-go v1.2.0 // indirect
	github.com/microsoft/kiota-authentication-azure-go v1.0.0 // indirect
	github.com/microsoft/kiota-http-go v1.1.0 // indirect
	github.com/microsoft/kiota-serialization-form-go v1.0.0 // indirect
	github.com/microsoft/kiota-serialization-json-go v1.0.4 // indirect
	github.com/microsoft/kiota-serialization-multipart-go v1.0.0 // indirect
	github.com/microsoft/kiota-serialization-text-go v1.0.0 // indirect
	github.com/microsoftgraph/msgraph-sdk-go-core v1.0.0 // indirect
	github.com/pkg/browser v0.0.0-20210911075715-681adbf594b8 // indirect
	github.com/pmezard/go-difflib v1.0.0 // indirect
	github.com/yosida95/uritemplate/v3 v3.0.2 // indirect
	go.opentelemetry.io/otel v1.16.0 // indirect
	go.opentelemetry.io/otel/metric v1.16.0 // indirect
	go.opentelemetry.io/otel/trace v1.16.0 // indirect
	golang.org/x/crypto v0.12.0 // indirect
	golang.org/x/net v0.14.0 // indirect
	golang.org/x/sys v0.11.0 // indirect
	golang.org/x/text v0.12.0 // indirect
	gopkg.in/yaml.v3 v3.0.1 // indirect
)
